(Project nema23)
(Created by Estlcam version 9 build 9,047)
(Machining time about 00:02:02 hours)

(Required tools:)
(End mill 3mm)
G21
G90
G94
M03 S24000
G00 Z5.0000


(No. 1: Hole 5)
G00 X5.7030 Y5.5836
G00 Z0.5000
G01 Z-1.0000 F10.000 S24000
G02 X6.6300 Y8.0280 I0.9281 J1.0460 F20.000
G02 X7.9371 Y6.1343 I0.0000 J-1.3980
G02 X5.7030 Y5.5836 I-1.3071 J0.4957
G01 Z-2.0000 F10.000
G02 X6.6300 Y8.0280 I0.9281 J1.0460 F20.000
G02 X7.9371 Y6.1343 I0.0000 J-1.3980
G02 X5.7030 Y5.5836 I-1.3071 J0.4957
G01 Z-3.0000 F10.000
G02 X6.6300 Y8.0280 I0.9281 J1.0460 F20.000
G02 X7.9371 Y6.1343 I0.0000 J-1.3980
G02 X5.7030 Y5.5836 I-1.3071 J0.4957


(No. 2: Hole 5)
G00 X5.7030 Y5.5836 Z5.0000
G00 Z0.5000
G01 Z-1.0000 F10.000
G01 X5.6369 Y5.5083 F20.000
G02 X5.5083 Y7.6231 I0.9931 J1.1217
G02 X7.6231 Y7.7517 I1.1217 J-0.9931
G02 X7.7517 Y5.6369 I-0.9931 J-1.1217
G02 X5.6369 Y5.5083 I-1.1217 J0.9931
G01 X5.7030 Y5.5836
G00 Z0.0000
G01 Z-2.0000 F10.000
G01 X5.6369 Y5.5083 F20.000
G02 X5.5083 Y7.6231 I0.9931 J1.1217
G02 X7.6231 Y7.7517 I1.1217 J-0.9931
G02 X7.7517 Y5.6369 I-0.9931 J-1.1217
G02 X5.6369 Y5.5083 I-1.1217 J0.9931
G01 X5.7030 Y5.5836
G00 Z0.0000
G01 Z-3.0000 F10.000
G01 X5.6369 Y5.5083 F20.000
G02 X5.5083 Y7.6231 I0.9931 J1.1217
G02 X7.6231 Y7.7517 I1.1217 J-0.9931
G02 X7.7517 Y5.6369 I-0.9931 J-1.1217
G02 X5.6369 Y5.5083 I-1.1217 J0.9931
G01 X5.7030 Y5.5836
G00 Z0.0000
G00 Z5.0000


(No. 3: Hole 2)
G00 X27.3722 Y27.3722 Z5.0000
G00 Z0.5000
G01 Z-1.0000 F10.000
G02 X27.3717 Y33.0274 I2.8273 J2.8279 F20.000
G02 X33.0269 Y33.0280 I2.8279 J-2.8273
G02 X33.0274 Y27.3728 I-2.8273 J-2.8279
G02 X27.3722 Y27.3722 I-2.8279 J2.8273
G01 Z-2.0000 F10.000
G02 X27.3717 Y33.0274 I2.8273 J2.8279 F20.000
G02 X33.0269 Y33.0280 I2.8279 J-2.8273
G02 X33.0274 Y27.3728 I-2.8273 J-2.8279
G02 X27.3722 Y27.3722 I-2.8279 J2.8273
G01 Z-3.0000 F10.000
G02 X27.3717 Y33.0274 I2.8273 J2.8279 F20.000
G02 X33.0269 Y33.0280 I2.8279 J-2.8273
G02 X33.0274 Y27.3728 I-2.8273 J-2.8279
G02 X27.3722 Y27.3722 I-2.8279 J2.8273
G00 Z5.0000


(No. 4: Hole 4)
G00 X27.4430 Y27.4430 Z5.0000
G00 Z0.5000
G01 Z-1.0000 F10.000
G02 Y32.9570 I2.7570 J2.7570 F20.000
G02 X32.9570 I2.7570 J-2.7570
G02 Y27.4430 I-2.7570 J-2.7570
G02 X27.4430 I-2.7570 J2.7570
G01 Z-2.0000 F10.000
G02 Y32.9570 I2.7570 J2.7570 F20.000
G02 X32.9570 I2.7570 J-2.7570
G02 Y27.4430 I-2.7570 J-2.7570
G02 X27.4430 I-2.7570 J2.7570
G01 Z-3.0000 F10.000
G02 Y32.9570 I2.7570 J2.7570 F20.000
G02 X32.9570 I2.7570 J-2.7570
G02 Y27.4430 I-2.7570 J-2.7570
G02 X27.4430 I-2.7570 J2.7570


(No. 5: Hole 4)
G00 X27.4430 Y27.4430 Z5.0000
G00 Z0.5000
G01 Z-1.0000 F10.000
G01 X27.3722 Y27.3722 F20.000
G02 X27.3717 Y33.0274 I2.8273 J2.8279
G02 X33.0269 Y33.0280 I2.8279 J-2.8273
G02 X33.0274 Y27.3728 I-2.8273 J-2.8279
G02 X27.3722 Y27.3722 I-2.8279 J2.8273
G01 X27.4430 Y27.4430
G00 Z0.0000
G01 Z-2.0000 F10.000
G01 X27.3722 Y27.3722 F20.000
G02 X27.3717 Y33.0274 I2.8273 J2.8279
G02 X33.0269 Y33.0280 I2.8279 J-2.8273
G02 X33.0274 Y27.3728 I-2.8273 J-2.8279
G02 X27.3722 Y27.3722 I-2.8279 J2.8273
G01 X27.4430 Y27.4430
G00 Z0.0000
G01 Z-3.0000 F10.000
G01 X27.3722 Y27.3722 F20.000
G02 X27.3717 Y33.0274 I2.8273 J2.8279
G02 X33.0269 Y33.0280 I2.8279 J-2.8273
G02 X33.0274 Y27.3728 I-2.8273 J-2.8279
G02 X27.3722 Y27.3722 I-2.8279 J2.8273
G01 X27.4430 Y27.4430
G00 Z0.0000
G00 Z5.0000


(No. 6: Hole 1)
G00 X6.4615 Y52.3822 Z5.0000
G00 Z0.5000
G01 Z-1.0000 F10.000
G02 X6.6300 Y55.1680 I0.1693 J1.3877 F20.000
G02 X8.0272 Y53.7566 I0.0006 J-1.3967
G02 X6.4615 Y52.3822 I-1.3970 J0.0125
G01 Z-2.0000 F10.000
G02 X6.6300 Y55.1680 I0.1693 J1.3877 F20.000
G02 X8.0272 Y53.7566 I0.0006 J-1.3967
G02 X6.4615 Y52.3822 I-1.3970 J0.0125
G01 Z-3.0000 F10.000
G02 X6.6300 Y55.1680 I0.1693 J1.3877 F20.000
G02 X8.0272 Y53.7566 I0.0006 J-1.3967
G02 X6.4615 Y52.3822 I-1.3970 J0.0125


(No. 7: Hole 1)
G00 X6.4615 Y52.3822 Z5.0000
G00 Z0.5000
G01 Z-1.0000 F10.000
G01 X6.4499 Y52.2827 F20.000
G02 X5.1427 Y53.9501 I0.1801 J1.4873
G02 X6.8101 Y55.2573 I1.4873 J-0.1801
G02 X8.1173 Y53.5899 I-0.1801 J-1.4873
G02 X6.4499 Y52.2827 I-1.4873 J0.1801
G01 X6.4615 Y52.3822
G00 Z0.0000
G01 Z-2.0000 F10.000
G01 X6.4499 Y52.2827 F20.000
G02 X5.1427 Y53.9501 I0.1801 J1.4873
G02 X6.8101 Y55.2573 I1.4873 J-0.1801
G02 X8.1173 Y53.5899 I-0.1801 J-1.4873
G02 X6.4499 Y52.2827 I-1.4873 J0.1801
G01 X6.4615 Y52.3822
G00 Z0.0000
G01 Z-3.0000 F10.000
G01 X6.4499 Y52.2827 F20.000
G02 X5.1427 Y53.9501 I0.1801 J1.4873
G02 X6.8101 Y55.2573 I1.4873 J-0.1801
G02 X8.1173 Y53.5899 I-0.1801 J-1.4873
G02 X6.4499 Y52.2827 I-1.4873 J0.1801
G01 X6.4615 Y52.3822
G00 Z0.0000
G00 Z5.0000


(No. 8: Hole 6)
G00 X52.8430 Y52.7236 Z5.0000
G00 Z0.5000
G01 Z-1.0000 F10.000
G02 X53.7700 Y55.1680 I0.9270 J1.0464 F20.000
G02 X55.0771 Y53.2743 I0.0000 J-1.3980
G02 X52.8430 Y52.7236 I-1.3071 J0.4957
G01 Z-2.0000 F10.000
G02 X53.7700 Y55.1680 I0.9270 J1.0464 F20.000
G02 X55.0771 Y53.2743 I0.0000 J-1.3980
G02 X52.8430 Y52.7236 I-1.3071 J0.4957
G01 Z-3.0000 F10.000
G02 X53.7700 Y55.1680 I0.9270 J1.0464 F20.000
G02 X55.0771 Y53.2743 I0.0000 J-1.3980
G02 X52.8430 Y52.7236 I-1.3071 J0.4957


(No. 9: Hole 6)
G00 X52.8430 Y52.7236 Z5.0000
G00 Z0.5000
G01 Z-1.0000 F10.000
G01 X52.7769 Y52.6483 F20.000
G02 X52.6483 Y54.7631 I0.9931 J1.1217
G02 X54.7631 Y54.8917 I1.1217 J-0.9931
G02 X54.8917 Y52.7769 I-0.9931 J-1.1217
G02 X52.7769 Y52.6483 I-1.1217 J0.9931
G01 X52.8430 Y52.7236
G00 Z0.0000
G01 Z-2.0000 F10.000
G01 X52.7769 Y52.6483 F20.000
G02 X52.6483 Y54.7631 I0.9931 J1.1217
G02 X54.7631 Y54.8917 I1.1217 J-0.9931
G02 X54.8917 Y52.7769 I-0.9931 J-1.1217
G02 X52.7769 Y52.6483 I-1.1217 J0.9931
G01 X52.8430 Y52.7236
G00 Z0.0000
G01 Z-3.0000 F10.000
G01 X52.7769 Y52.6483 F20.000
G02 X52.6483 Y54.7631 I0.9931 J1.1217
G02 X54.7631 Y54.8917 I1.1217 J-0.9931
G02 X54.8917 Y52.7769 I-0.9931 J-1.1217
G02 X52.7769 Y52.6483 I-1.1217 J0.9931
G01 X52.8430 Y52.7236
G00 Z0.0000
G00 Z5.0000


(No. 10: Hole 3)
G00 X52.3822 Y6.4615 Z5.0000
G00 Z0.5000
G01 Z-1.0000 F10.000
G02 X53.7700 Y8.0280 I1.3878 J0.1685 F20.000
G02 X54.8164 Y5.7030 I0.0000 J-1.3980
G02 X52.3822 Y6.4615 I-1.0464 J0.9270
G01 Z-2.0000 F10.000
G02 X53.7700 Y8.0280 I1.3878 J0.1685 F20.000
G02 X54.8164 Y5.7030 I0.0000 J-1.3980
G02 X52.3822 Y6.4615 I-1.0464 J0.9270
G01 Z-3.0000 F10.000
G02 X53.7700 Y8.0280 I1.3878 J0.1685 F20.000
G02 X54.8164 Y5.7030 I0.0000 J-1.3980
G02 X52.3822 Y6.4615 I-1.0464 J0.9270


(No. 11: Hole 3)
G00 X52.3822 Y6.4615 Z5.0000
G00 Z0.5000
G01 Z-1.0000 F10.000
G01 X52.2828 Y6.4489 F20.000
G02 X53.5889 Y8.1172 I1.4872 J0.1811
G02 X55.2572 Y6.8111 I0.1811 J-1.4872
G02 X53.9511 Y5.1428 I-1.4872 J-0.1811
G02 X52.2828 Y6.4489 I-0.1811 J1.4872
G01 X52.3822 Y6.4615
G00 Z0.0000
G01 Z-2.0000 F10.000
G01 X52.2828 Y6.4489 F20.000
G02 X53.5889 Y8.1172 I1.4872 J0.1811
G02 X55.2572 Y6.8111 I0.1811 J-1.4872
G02 X53.9511 Y5.1428 I-1.4872 J-0.1811
G02 X52.2828 Y6.4489 I-0.1811 J1.4872
G01 X52.3822 Y6.4615
G00 Z0.0000
G01 Z-3.0000 F10.000
G01 X52.2828 Y6.4489 F20.000
G02 X53.5889 Y8.1172 I1.4872 J0.1811
G02 X55.2572 Y6.8111 I0.1811 J-1.4872
G02 X53.9511 Y5.1428 I-1.4872 J-0.1811
G02 X52.2828 Y6.4489 I-0.1811 J1.4872
G01 X52.3822 Y6.4615
G00 Z0.0000
G00 Z5.0000


(No. 12: Part 1)
G00 X0.9008 Y30.8498 Z5.0000
G00 Z0.5000
G01 Z-1.0000 F10.000
G01 X0.9016 Y6.5668 F20.000
G03 X6.5668 Y0.9016 I5.7284 J0.0632
G01 X53.7500 Y0.9000
G03 X59.5000 Y6.6500 I0.0168 J5.7332
G01 X59.4992 Y30.9255
G00 Z0.0000
G01 X59.4991 Y33.9255
G01 Z-1.0000 F10.000
G01 X59.4984 Y53.8332 F20.000
G03 X53.8332 Y59.4984 I-5.7284 J-0.0632
G01 X6.6500 Y59.5000
G03 X0.9000 Y53.7500 I-0.0168 J-5.7332
G01 X0.9007 Y33.8498
G00 Z0.0000
G01 X0.9008 Y30.8498
G00 Z-0.5000
G01 Z-2.0000 F10.000
G01 X0.9016 Y6.5668 F20.000
G03 X6.5668 Y0.9016 I5.7284 J0.0632
G01 X53.7500 Y0.9000
G03 X59.5000 Y6.6500 I0.0168 J5.7332
G01 X59.4992 Y30.9255
G00 Z0.0000
G01 X59.4991 Y33.9255
G00 Z-0.5000
G01 Z-2.0000 F10.000
G01 X59.4984 Y53.8332 F20.000
G03 X53.8332 Y59.4984 I-5.7284 J-0.0632
G01 X6.6500 Y59.5000
G03 X0.9000 Y53.7500 I-0.0168 J-5.7332
G01 X0.9007 Y33.8498
G00 Z0.0000
G01 X0.9008 Y30.8498
G00 Z-1.5000
G01 Z-3.0000 F10.000
G01 X0.9016 Y6.5668 F20.000
G03 X6.5668 Y0.9016 I5.7284 J0.0632
G01 X53.7500 Y0.9000
G03 X59.5000 Y6.6500 I0.0168 J5.7332
G01 X59.4992 Y30.9255
G00 Z0.0000
G01 X59.4991 Y33.9255
G00 Z-1.5000
G01 Z-3.0000 F10.000
G01 X59.4984 Y53.8332 F20.000
G03 X53.8332 Y59.4984 I-5.7284 J-0.0632
G01 X6.6500 Y59.5000
G03 X0.9000 Y53.7500 I-0.0168 J-5.7332
G01 X0.9007 Y33.8498
G00 Z0.0000
G01 X0.9008 Y30.8498


(No. 13: Part 1)
G00 X0.9008 Y30.8498 Z5.0000
G00 Z0.5000
G01 Z-1.0000 F10.000
G01 X1.0008 Y30.8497 F20.000
G01 X1.0016 Y6.5708
G03 X6.5708 Y1.0016 I5.6284 J0.0592
G01 X53.7500 Y1.0000
G03 X59.4000 Y6.6500 I0.0169 J5.6331
G01 X59.3992 Y30.9255
G01 X59.4992
G00 Z0.0000
G01 X59.3992
G01 X59.3991 Y33.9255
G01 X59.4991
G01 Z-1.0000 F10.000
G01 X59.3991 F20.000
G01 X59.3984 Y53.8292
G03 X53.8292 Y59.3984 I-5.6284 J-0.0592
G01 X6.6500 Y59.4000
G03 X1.0000 Y53.7500 I-0.0169 J-5.6331
G01 X1.0007 Y33.8497
G01 X0.9007 Y33.8498
G00 Z0.0000
G01 X1.0007 Y33.8497
G01 X1.0008 Y30.8497
G01 X0.9008 Y30.8498
G01 Z-2.0000 F10.000
G01 X1.0008 Y30.8497 F20.000
G01 X1.0016 Y6.5708
G03 X6.5708 Y1.0016 I5.6284 J0.0592
G01 X53.7500 Y1.0000
G03 X59.4000 Y6.6500 I0.0169 J5.6331
G01 X59.3992 Y30.9255
G01 X59.4992
G00 Z0.0000
G01 X59.4991 Y33.9255
G01 Z-2.0000 F10.000
G01 X59.3991 F20.000
G01 X59.3984 Y53.8292
G03 X53.8292 Y59.3984 I-5.6284 J-0.0592
G01 X6.6500 Y59.4000
G03 X1.0000 Y53.7500 I-0.0169 J-5.6331
G01 X1.0007 Y33.8497
G01 X0.9007 Y33.8498
G00 Z0.0000
G01 X0.9008 Y30.8498
G01 Z-3.0000 F10.000
G01 X1.0008 Y30.8497 F20.000
G01 X1.0016 Y6.5708
G03 X6.5708 Y1.0016 I5.6284 J0.0592
G01 X53.7500 Y1.0000
G03 X59.4000 Y6.6500 I0.0169 J5.6331
G01 X59.3992 Y30.9255
G01 X59.4992
G00 Z0.0000
G01 X59.4991 Y33.9255
G01 Z-3.0000 F10.000
G01 X59.3991 F20.000
G01 X59.3984 Y53.8292
G03 X53.8292 Y59.3984 I-5.6284 J-0.0592
G01 X6.6500 Y59.4000
G03 X1.0000 Y53.7500 I-0.0169 J-5.6331
G01 X1.0007 Y33.8497
G01 X0.9007 Y33.8498
G00 Z0.0000
G01 X0.9008 Y30.8498
G00 Z5.0000
G00 X0.0000 Y0.0000

M05
M30
